{
  "name": "Azerbaijan",
  "altSpellings": ["AZ", "Republic of Azerbaijan", "Azərbaycan Respublikası"],
  "area": 86600,
  "borders": ["ARM", "GEO", "IRN", "RUS", "TUR"],
  "callingCodes": ["994"],
  "capital": "Baku",
  "currencies": ["AZN"],
  "demonym": "Azerbaijani",
  "flag": "http://upload.wikimedia.org/wikipedia/commons/d/dd/Flag_of_Azerbaijan.svg",
  "geoJSON": {
    "type": "FeatureCollection",
    "features": [
      {
        "type": "Feature",
        "id": "AZE",
        "properties": { "name": "Azerbaijan" },
        "geometry": {
          "type": "MultiPolygon",
          "coordinates": [
            [
              [
                [45.001987, 39.740004],
                [45.298145, 39.471751],
                [45.739978, 39.473999],
                [45.735379, 39.319719],
                [46.143623, 38.741201],
                [45.457722, 38.874139],
                [44.952688, 39.335765],
                [44.79399, 39.713003],
                [45.001987, 39.740004]
              ]
            ],
            [
              [
                [47.373315, 41.219732],
                [47.815666, 41.151416],
                [47.987283, 41.405819],
                [48.584353, 41.80887],
                [49.110264, 41.282287],
                [49.618915, 40.572924],
                [50.08483, 40.526157],
                [50.392821, 40.256561],
                [49.569202, 40.176101],
                [49.395259, 39.399482],
                [49.223228, 39.049219],
                [48.856532, 38.815486],
                [48.883249, 38.320245],
                [48.634375, 38.270378],
                [48.010744, 38.794015],
                [48.355529, 39.288765],
                [48.060095, 39.582235],
                [47.685079, 39.508364],
                [46.50572, 38.770605],
                [46.483499, 39.464155],
                [46.034534, 39.628021],
                [45.610012, 39.899994],
                [45.891907, 40.218476],
                [45.359175, 40.561504],
                [45.560351, 40.81229],
                [45.179496, 40.985354],
                [44.97248, 41.248129],
                [45.217426, 41.411452],
                [45.962601, 41.123873],
                [46.501637, 41.064445],
                [46.637908, 41.181673],
                [46.145432, 41.722802],
                [46.404951, 41.860675],
                [46.686071, 41.827137],
                [47.373315, 41.219732]
              ]
            ]
          ]
        }
      }
    ]
  },
  "ISO": { "alpha2": "AZ", "alpha3": "AZE" },
  "languages": ["az", "hy"],
  "latlng": [40.5, 47.5],
  "nativeName": "Azərbaycan",
  "population": 9552500,
  "region": "Asia",
  "subregion": "Western Asia",
  "timezones": ["UTC+04:00"],
  "tld": [".az"],
  "translations": {
    "de": "Aserbaidschan",
    "es": "Azerbaiyán",
    "fr": "Azerbaïdjan",
    "ja": "アゼルバイジャン",
    "it": "Azerbaijan"
  },
  "wiki": "http://en.wikipedia.org/wiki/azerbaijan",
  "states": [
    { "name": "Abseron Rayonu", "abbreviation": "", "country": "AZ" },
    { "name": "Agcabadi Rayonu", "abbreviation": "", "country": "AZ" },
    { "name": "Agdam Rayonu", "abbreviation": "", "country": "AZ" },
    { "name": "Agdas Rayonu", "abbreviation": "", "country": "AZ" },
    { "name": "Agstafa Rayonu", "abbreviation": "", "country": "AZ" },
    { "name": "Agsu Rayonu", "abbreviation": "", "country": "AZ" },
    { "name": "Ali Bayramli Sahari", "abbreviation": "", "country": "AZ" },
    { "name": "Astara Rayonu", "abbreviation": "", "country": "AZ" },
    { "name": "Baki Sahari", "abbreviation": "", "country": "AZ" },
    { "name": "Balakan Rayonu", "abbreviation": "", "country": "AZ" },
    { "name": "Barda Rayonu", "abbreviation": "", "country": "AZ" },
    { "name": "Beylaqan Rayonu", "abbreviation": "", "country": "AZ" },
    { "name": "Bilasuvar Rayonu", "abbreviation": "", "country": "AZ" },
    { "name": "Cabrayil Rayonu", "abbreviation": "", "country": "AZ" },
    { "name": "Calilabad Rayonu", "abbreviation": "", "country": "AZ" },
    { "name": "Daskasan Rayonu", "abbreviation": "", "country": "AZ" },
    { "name": "Davaci Rayonu", "abbreviation": "", "country": "AZ" },
    { "name": "Fuzuli Rayonu", "abbreviation": "", "country": "AZ" },
    { "name": "Gadabay Rayonu", "abbreviation": "", "country": "AZ" },
    { "name": "Ganca Sahari", "abbreviation": "", "country": "AZ" },
    { "name": "Goranboy Rayonu", "abbreviation": "", "country": "AZ" },
    { "name": "Goycay Rayonu", "abbreviation": "", "country": "AZ" },
    { "name": "Haciqabul Rayonu", "abbreviation": "", "country": "AZ" },
    { "name": "Imisli Rayonu", "abbreviation": "", "country": "AZ" },
    { "name": "Ismayilli Rayonu", "abbreviation": "", "country": "AZ" },
    { "name": "Kalbacar Rayonu", "abbreviation": "", "country": "AZ" },
    { "name": "Kurdamir Rayonu", "abbreviation": "", "country": "AZ" },
    { "name": "Lacin Rayonu", "abbreviation": "", "country": "AZ" },
    { "name": "Lankaran Rayonu", "abbreviation": "", "country": "AZ" },
    { "name": "Lankaran Sahari", "abbreviation": "", "country": "AZ" },
    { "name": "Lerik Rayonu", "abbreviation": "", "country": "AZ" },
    { "name": "Masalli Rayonu", "abbreviation": "", "country": "AZ" },
    { "name": "Mingacevir Sahari", "abbreviation": "", "country": "AZ" },
    { "name": "Naftalan Sahari", "abbreviation": "", "country": "AZ" },
    {
      "name": "Naxcivan Muxtar Respublikasi",
      "abbreviation": "",
      "country": "AZ"
    },
    { "name": "Neftcala Rayonu", "abbreviation": "", "country": "AZ" },
    { "name": "Oguz Rayonu", "abbreviation": "", "country": "AZ" },
    { "name": "Qabala Rayonu", "abbreviation": "", "country": "AZ" },
    { "name": "Qax Rayonu", "abbreviation": "", "country": "AZ" },
    { "name": "Qazax Rayonu", "abbreviation": "", "country": "AZ" },
    { "name": "Qobustan Rayonu", "abbreviation": "", "country": "AZ" },
    { "name": "Quba Rayonu", "abbreviation": "", "country": "AZ" },
    { "name": "Qubadli Rayonu", "abbreviation": "", "country": "AZ" },
    { "name": "Qusar Rayonu", "abbreviation": "", "country": "AZ" },
    { "name": "Saatli Rayonu", "abbreviation": "", "country": "AZ" },
    { "name": "Sabirabad Rayonu", "abbreviation": "", "country": "AZ" },
    { "name": "Saki Rayonu", "abbreviation": "", "country": "AZ" },
    { "name": "Saki Sahari", "abbreviation": "", "country": "AZ" },
    { "name": "Salyan Rayonu", "abbreviation": "", "country": "AZ" },
    { "name": "Samaxi Rayonu", "abbreviation": "", "country": "AZ" },
    { "name": "Samkir Rayonu", "abbreviation": "", "country": "AZ" },
    { "name": "Samux Rayonu", "abbreviation": "", "country": "AZ" },
    { "name": "Siyazan Rayonu", "abbreviation": "", "country": "AZ" },
    { "name": "Sumqayit Sahari", "abbreviation": "", "country": "AZ" },
    { "name": "Susa Rayonu", "abbreviation": "", "country": "AZ" },
    { "name": "Susa Sahari", "abbreviation": "", "country": "AZ" },
    { "name": "Tartar Rayonu", "abbreviation": "", "country": "AZ" },
    { "name": "Tovuz Rayonu", "abbreviation": "", "country": "AZ" },
    { "name": "Ucar Rayonu", "abbreviation": "", "country": "AZ" },
    { "name": "Xacmaz Rayonu", "abbreviation": "", "country": "AZ" },
    { "name": "Xankandi Sahari", "abbreviation": "", "country": "AZ" },
    { "name": "Xanlar Rayonu", "abbreviation": "", "country": "AZ" },
    { "name": "Xizi Rayonu", "abbreviation": "", "country": "AZ" },
    { "name": "Xocali Rayonu", "abbreviation": "", "country": "AZ" },
    { "name": "Xocavand Rayonu", "abbreviation": "", "country": "AZ" },
    { "name": "Yardimli Rayonu", "abbreviation": "", "country": "AZ" },
    { "name": "Yevlax Rayonu", "abbreviation": "", "country": "AZ" },
    { "name": "Yevlax Sahari", "abbreviation": "", "country": "AZ" },
    { "name": "Zangilan Rayonu", "abbreviation": "", "country": "AZ" },
    { "name": "Zaqatala Rayonu", "abbreviation": "", "country": "AZ" },
    { "name": "Zardab Rayonu", "abbreviation": "", "country": "AZ" }
  ]
}
