{
  "name": "Benin",
  "altSpellings": ["BJ", "Republic of Benin", "République du Bénin"],
  "area": 112622,
  "borders": ["BFA", "NER", "NGA", "TGO"],
  "callingCodes": ["229"],
  "capital": "Porto-Novo",
  "currencies": ["XOF"],
  "demonym": "Beninese",
  "flag": "",
  "geoJSON": {
    "type": "FeatureCollection",
    "features": [
      {
        "type": "Feature",
        "id": "BEN",
        "properties": { "name": "Benin" },
        "geometry": {
          "type": "Polygon",
          "coordinates": [
            [
              [2.691702, 6.258817],
              [1.865241, 6.142158],
              [1.618951, 6.832038],
              [1.664478, 9.12859],
              [1.463043, 9.334624],
              [1.425061, 9.825395],
              [1.077795, 10.175607],
              [0.772336, 10.470808],
              [0.899563, 10.997339],
              [1.24347, 11.110511],
              [1.447178, 11.547719],
              [1.935986, 11.64115],
              [2.154474, 11.94015],
              [2.490164, 12.233052],
              [2.848643, 12.235636],
              [3.61118, 11.660167],
              [3.572216, 11.327939],
              [3.797112, 10.734746],
              [3.60007, 10.332186],
              [3.705438, 10.06321],
              [3.220352, 9.444153],
              [2.912308, 9.137608],
              [2.723793, 8.506845],
              [2.749063, 7.870734],
              [2.691702, 6.258817]
            ]
          ]
        }
      }
    ]
  },
  "ISO": { "alpha2": "BJ", "alpha3": "BEN" },
  "languages": ["fr"],
  "latlng": [9.5, 2.25],
  "nativeName": "Bénin",
  "population": 9988068,
  "region": "Africa",
  "subregion": "Western Africa",
  "timezones": ["UTC+01:00"],
  "tld": [".bj"],
  "translations": {
    "de": "Benin",
    "es": "Benín",
    "fr": "Bénin",
    "ja": "ベナン",
    "it": "Benin"
  },
  "wiki": "http://en.wikipedia.org/wiki/benin",
  "states": [
    { "name": "Alibori", "abbreviation": "", "country": "BJ" },
    { "name": "Atakora", "abbreviation": "", "country": "BJ" },
    { "name": "Atlantique", "abbreviation": "", "country": "BJ" },
    { "name": "Borgou", "abbreviation": "", "country": "BJ" },
    { "name": "Collines", "abbreviation": "", "country": "BJ" },
    { "name": "Couffo", "abbreviation": "", "country": "BJ" },
    { "name": "Donga", "abbreviation": "", "country": "BJ" },
    { "name": "Littoral", "abbreviation": "LT", "country": "BJ" },
    { "name": "Mono", "abbreviation": "", "country": "BJ" },
    { "name": "Oueme", "abbreviation": "", "country": "BJ" },
    { "name": "Plateau", "abbreviation": "", "country": "BJ" },
    { "name": "Zou", "abbreviation": "", "country": "BJ" }
  ]
}
