{
  "name": "Bhutan",
  "altSpellings": ["BT", "Kingdom of Bhutan"],
  "area": 38394,
  "borders": ["CHN", "IND"],
  "callingCodes": ["975"],
  "capital": "Thimphu",
  "currencies": ["BTN", "INR"],
  "demonym": "Bhutanese",
  "flag": "",
  "geoJSON": {
    "type": "FeatureCollection",
    "features": [
      {
        "type": "Feature",
        "id": "BTN",
        "properties": { "name": "Bhutan" },
        "geometry": {
          "type": "Polygon",
          "coordinates": [
            [
              [91.696657, 27.771742],
              [92.103712, 27.452614],
              [92.033484, 26.83831],
              [91.217513, 26.808648],
              [90.373275, 26.875724],
              [89.744528, 26.719403],
              [88.835643, 27.098966],
              [88.814248, 27.299316],
              [89.47581, 28.042759],
              [90.015829, 28.296439],
              [90.730514, 28.064954],
              [91.258854, 28.040614],
              [91.696657, 27.771742]
            ]
          ]
        }
      }
    ]
  },
  "ISO": { "alpha2": "BT", "alpha3": "BTN" },
  "languages": ["dz"],
  "latlng": [27.5, 90.5],
  "nativeName": "ʼbrug-yul",
  "population": 755030,
  "region": "Asia",
  "subregion": "Southern Asia",
  "timezones": ["UTC+06:00"],
  "tld": [".bt"],
  "translations": {
    "de": "Bhutan",
    "es": "Bután",
    "fr": "Bhoutan",
    "ja": "ブータン",
    "it": "Bhutan"
  },
  "wiki": "http://en.wikipedia.org/wiki/bhutan",
  "states": [
    { "name": "Bumthang", "abbreviation": "", "country": "BT" },
    { "name": "Chhukha", "abbreviation": "", "country": "BT" },
    { "name": "Chirang", "abbreviation": "", "country": "BT" },
    { "name": "Daga", "abbreviation": "", "country": "BT" },
    { "name": "Geylegphug", "abbreviation": "", "country": "BT" },
    { "name": "Ha", "abbreviation": "", "country": "BT" },
    { "name": "Lhuntshi", "abbreviation": "", "country": "BT" },
    { "name": "Mongar", "abbreviation": "", "country": "BT" },
    { "name": "Paro", "abbreviation": "", "country": "BT" },
    { "name": "Pemagatsel", "abbreviation": "", "country": "BT" },
    { "name": "Punakha", "abbreviation": "", "country": "BT" },
    { "name": "Samchi", "abbreviation": "", "country": "BT" },
    { "name": "Samdrup Jongkhar", "abbreviation": "", "country": "BT" },
    { "name": "Shemgang", "abbreviation": "", "country": "BT" },
    { "name": "Tashigang", "abbreviation": "", "country": "BT" },
    { "name": "Thimphu", "abbreviation": "", "country": "BT" },
    { "name": "Tongsa", "abbreviation": "", "country": "BT" },
    { "name": "Wangdi Phodrang", "abbreviation": "", "country": "BT" }
  ]
}
