{
  "name": "Bulgaria",
  "altSpellings": ["BG", "Republic of Bulgaria", "Република България"],
  "area": 110879,
  "borders": ["GRC", "MKD", "ROU", "SRB", "TUR"],
  "callingCodes": ["359"],
  "capital": "Sofia",
  "currencies": ["BGN"],
  "demonym": "Bulgarian",
  "flag": "",
  "geoJSON": {
    "type": "FeatureCollection",
    "features": [
      {
        "type": "Feature",
        "id": "BGR",
        "properties": { "name": "Bulgaria" },
        "geometry": {
          "type": "Polygon",
          "coordinates": [
            [
              [22.65715, 44.234923],
              [22.944832, 43.823785],
              [23.332302, 43.897011],
              [24.100679, 43.741051],
              [25.569272, 43.688445],
              [26.065159, 43.943494],
              [27.2424, 44.175986],
              [27.970107, 43.812468],
              [28.558081, 43.707462],
              [28.039095, 43.293172],
              [27.673898, 42.577892],
              [27.99672, 42.007359],
              [27.135739, 42.141485],
              [26.117042, 41.826905],
              [26.106138, 41.328899],
              [25.197201, 41.234486],
              [24.492645, 41.583896],
              [23.692074, 41.309081],
              [22.952377, 41.337994],
              [22.881374, 41.999297],
              [22.380526, 42.32026],
              [22.545012, 42.461362],
              [22.436595, 42.580321],
              [22.604801, 42.898519],
              [22.986019, 43.211161],
              [22.500157, 43.642814],
              [22.410446, 44.008063],
              [22.65715, 44.234923]
            ]
          ]
        }
      }
    ]
  },
  "ISO": { "alpha2": "BG", "alpha3": "BGR" },
  "languages": ["bg"],
  "latlng": [43, 25],
  "nativeName": "България",
  "population": 7245677,
  "region": "Europe",
  "subregion": "Eastern Europe",
  "timezones": ["UTC+02:00"],
  "tld": [".bg"],
  "translations": {
    "de": "Bulgarien",
    "es": "Bulgaria",
    "fr": "Bulgarie",
    "ja": "ブルガリア",
    "it": "Bulgaria"
  },
  "wiki": "http://en.wikipedia.org/wiki/bulgaria",
  "states": [
    { "name": "Blagoevgrad", "abbreviation": "", "country": "BG" },
    { "name": "Burgas", "abbreviation": "", "country": "BG" },
    { "name": "Dobrich", "abbreviation": "", "country": "BG" },
    { "name": "Gabrovo", "abbreviation": "", "country": "BG" },
    { "name": "Khaskovo", "abbreviation": "", "country": "BG" },
    { "name": "Kurdzhali", "abbreviation": "", "country": "BG" },
    { "name": "Kyustendil", "abbreviation": "", "country": "BG" },
    { "name": "Lovech", "abbreviation": "", "country": "BG" },
    { "name": "Montana", "abbreviation": "MT", "country": "BG" },
    { "name": "Pazardzhik", "abbreviation": "", "country": "BG" },
    { "name": "Pernik", "abbreviation": "", "country": "BG" },
    { "name": "Pleven", "abbreviation": "", "country": "BG" },
    { "name": "Plovdiv", "abbreviation": "", "country": "BG" },
    { "name": "Razgrad", "abbreviation": "", "country": "BG" },
    { "name": "Ruse", "abbreviation": "", "country": "BG" },
    { "name": "Shumen", "abbreviation": 27, "country": "BG" },
    { "name": "Silistra", "abbreviation": "", "country": "BG" },
    { "name": "Sliven", "abbreviation": "", "country": "BG" },
    { "name": "Smolyan", "abbreviation": "", "country": "BG" },
    { "name": "Sofiya", "abbreviation": "", "country": "BG" },
    { "name": "Sofiya-Grad", "abbreviation": "", "country": "BG" },
    { "name": "Stara Zagora", "abbreviation": "", "country": "BG" },
    { "name": "Turgovishte", "abbreviation": "", "country": "BG" },
    { "name": "Varna", "abbreviation": "", "country": "BG" },
    { "name": "Veliko Turnovo", "abbreviation": "", "country": "BG" },
    { "name": "Vidin", "abbreviation": "", "country": "BG" },
    { "name": "Vratsa", "abbreviation": "", "country": "BG" },
    { "name": "Yambol", "abbreviation": "", "country": "BG" }
  ]
}
