{
  "name": "Fiji",
  "altSpellings": [
    "FJ",
    "Viti",
    "Republic of Fiji",
    "Matanitu ko Viti",
    "Fijī Gaṇarājya"
  ],
  "area": 18272,
  "borders": [],
  "callingCodes": ["679"],
  "capital": "Suva",
  "currencies": ["FJD"],
  "demonym": "Fijian",
  "flag": "",
  "geoJSON": {
    "type": "FeatureCollection",
    "features": [
      {
        "type": "Feature",
        "id": "FJI",
        "properties": { "name": "Fiji" },
        "geometry": {
          "type": "MultiPolygon",
          "coordinates": [
            [
              [
                [178.3736, -17.33992],
                [178.71806, -17.62846],
                [178.55271, -18.15059],
                [177.93266, -18.28799],
                [177.38146, -18.16432],
                [177.28504, -17.72465],
                [177.67087, -17.38114],
                [178.12557, -17.50481],
                [178.3736, -17.33992]
              ]
            ],
            [
              [
                [179.364143, -16.801354],
                [178.725059, -17.012042],
                [178.596839, -16.63915],
                [179.096609, -16.433984],
                [179.413509, -16.379054],
                [180, -16.067133],
                [180, -16.555217],
                [179.364143, -16.801354]
              ]
            ],
            [
              [
                [-179.917369, -16.501783],
                [-180, -16.555217],
                [-180, -16.067133],
                [-179.79332, -16.020882],
                [-179.917369, -16.501783]
              ]
            ]
          ]
        }
      }
    ]
  },
  "ISO": { "alpha2": "FJ", "alpha3": "FJI" },
  "languages": ["en", "fj", "hi", "ur"],
  "latlng": [-18, 175],
  "nativeName": "Fiji",
  "population": 859178,
  "region": "Oceania",
  "subregion": "Melanesia",
  "timezones": ["UTC+12:00"],
  "tld": [".fj"],
  "translations": {
    "de": "Fidschi",
    "es": "Fiyi",
    "fr": "Fidji",
    "ja": "フィジー",
    "it": "Figi"
  },
  "wiki": "http://en.wikipedia.org/wiki/fiji",
  "states": [
    { "name": "Central", "abbreviation": "", "country": "FJ" },
    { "name": "Eastern", "abbreviation": "HEA", "country": "FJ" },
    { "name": "Northern", "abbreviation": "NO", "country": "FJ" },
    { "name": "Rotuma", "abbreviation": "R", "country": "FJ" },
    { "name": "Western", "abbreviation": "", "country": "FJ" }
  ]
}
