{
  "name": "Finland",
  "altSpellings": [
    "FI",
    "Suomi",
    "Republic of Finland",
    "Suomen tasavalta",
    "Republiken Finland"
  ],
  "area": 338424,
  "borders": ["NOR", "SWE", "RUS"],
  "callingCodes": ["358"],
  "capital": "Helsinki",
  "currencies": ["EUR"],
  "demonym": "Finnish",
  "flag": "",
  "geoJSON": {
    "type": "FeatureCollection",
    "features": [
      {
        "type": "Feature",
        "id": "FIN",
        "properties": { "name": "Finland" },
        "geometry": {
          "type": "Polygon",
          "coordinates": [
            [
              [28.59193, 69.064777],
              [28.445944, 68.364613],
              [29.977426, 67.698297],
              [29.054589, 66.944286],
              [30.21765, 65.80598],
              [29.54443, 64.948672],
              [30.444685, 64.204453],
              [30.035872, 63.552814],
              [31.516092, 62.867687],
              [31.139991, 62.357693],
              [30.211107, 61.780028],
              [28.069998, 60.503517],
              [26.255173, 60.423961],
              [24.496624, 60.057316],
              [22.869695, 59.846373],
              [22.290764, 60.391921],
              [21.322244, 60.72017],
              [21.544866, 61.705329],
              [21.059211, 62.607393],
              [21.536029, 63.189735],
              [22.442744, 63.81781],
              [24.730512, 64.902344],
              [25.398068, 65.111427],
              [25.294043, 65.534346],
              [23.903379, 66.006927],
              [23.56588, 66.396051],
              [23.539473, 67.936009],
              [21.978535, 68.616846],
              [20.645593, 69.106247],
              [21.244936, 69.370443],
              [22.356238, 68.841741],
              [23.66205, 68.891247],
              [24.735679, 68.649557],
              [25.689213, 69.092114],
              [26.179622, 69.825299],
              [27.732292, 70.164193],
              [29.015573, 69.766491],
              [28.59193, 69.064777]
            ]
          ]
        }
      }
    ]
  },
  "ISO": { "alpha2": "FI", "alpha3": "FIN" },
  "languages": ["fi", "sv"],
  "latlng": [64, 26],
  "nativeName": "Suomi",
  "population": 5470437,
  "region": "Europe",
  "subregion": "Northern Europe",
  "timezones": ["UTC+02:00"],
  "tld": [".fi"],
  "translations": {
    "de": "Finnland",
    "es": "Finlandia",
    "fr": "Finlande",
    "ja": "フィンランド",
    "it": "Finlandia"
  },
  "wiki": "http://en.wikipedia.org/wiki/finland",
  "states": [
    { "name": "Aland", "abbreviation": "", "country": "FI" },
    { "name": "Etela-Suomen Laani", "abbreviation": "", "country": "FI" },
    { "name": "Ita-Suomen Laani", "abbreviation": "", "country": "FI" },
    { "name": "Lansi-Suomen Laani", "abbreviation": "", "country": "FI" },
    { "name": "Lappi", "abbreviation": "", "country": "FI" },
    { "name": "Oulun Laani", "abbreviation": "", "country": "FI" }
  ]
}
