{
  "name": "France",
  "altSpellings": ["FR", "French Republic", "République française"],
  "area": 640679,
  "borders": ["AND", "BEL", "DEU", "ITA", "LUX", "MCO", "ESP", "CHE"],
  "callingCodes": ["33"],
  "capital": "Paris",
  "currencies": ["EUR"],
  "demonym": "French",
  "flag": "",
  "geoJSON": {
    "type": "FeatureCollection",
    "features": [
      {
        "type": "Feature",
        "id": "FRA",
        "properties": { "name": "France" },
        "geometry": {
          "type": "MultiPolygon",
          "coordinates": [
            [
              [
                [9.560016, 42.152492],
                [9.229752, 41.380007],
                [8.775723, 41.583612],
                [8.544213, 42.256517],
                [8.746009, 42.628122],
                [9.390001, 43.009985],
                [9.560016, 42.152492]
              ]
            ],
            [
              [
                [3.588184, 50.378992],
                [4.286023, 49.907497],
                [4.799222, 49.985373],
                [5.674052, 49.529484],
                [5.897759, 49.442667],
                [6.18632, 49.463803],
                [6.65823, 49.201958],
                [8.099279, 49.017784],
                [7.593676, 48.333019],
                [7.466759, 47.620582],
                [7.192202, 47.449766],
                [6.736571, 47.541801],
                [6.768714, 47.287708],
                [6.037389, 46.725779],
                [6.022609, 46.27299],
                [6.5001, 46.429673],
                [6.843593, 45.991147],
                [6.802355, 45.70858],
                [7.096652, 45.333099],
                [6.749955, 45.028518],
                [7.007562, 44.254767],
                [7.549596, 44.127901],
                [7.435185, 43.693845],
                [6.529245, 43.128892],
                [4.556963, 43.399651],
                [3.100411, 43.075201],
                [2.985999, 42.473015],
                [1.826793, 42.343385],
                [0.701591, 42.795734],
                [0.338047, 42.579546],
                [-1.502771, 43.034014],
                [-1.901351, 43.422802],
                [-1.384225, 44.02261],
                [-1.193798, 46.014918],
                [-2.225724, 47.064363],
                [-2.963276, 47.570327],
                [-4.491555, 47.954954],
                [-4.59235, 48.68416],
                [-3.295814, 48.901692],
                [-1.616511, 48.644421],
                [-1.933494, 49.776342],
                [-0.989469, 49.347376],
                [1.338761, 50.127173],
                [1.639001, 50.946606],
                [2.513573, 51.148506],
                [2.658422, 50.796848],
                [3.123252, 50.780363],
                [3.588184, 50.378992]
              ]
            ]
          ]
        }
      }
    ]
  },
  "ISO": { "alpha2": "FR", "alpha3": "FRA" },
  "languages": ["fr"],
  "latlng": [46, 2],
  "nativeName": "France",
  "population": 66078000,
  "region": "Europe",
  "subregion": "Western Europe",
  "timezones": [
    "UTC−10:00",
    "UTC−09:30",
    "UTC−09:00",
    "UTC−08:00",
    "UTC−04:00",
    "UTC−03:00",
    "UTC+01:00",
    "UTC+03:00",
    "UTC+04:00",
    "UTC+05:00",
    "UTC+11:00",
    "UTC+12:00"
  ],
  "tld": [".fr"],
  "translations": {
    "de": "Frankreich",
    "es": "Francia",
    "fr": "France",
    "ja": "フランス",
    "it": "Francia"
  },
  "wiki": "http://en.wikipedia.org/wiki/france",
  "states": [
    { "name": "Alsace", "abbreviation": "A", "country": "FR" },
    { "name": "Aquitaine", "abbreviation": "B", "country": "FR" },
    { "name": "Auvergne", "abbreviation": "C", "country": "FR" },
    { "name": "Basse-Normandie", "abbreviation": "", "country": "FR" },
    { "name": "Bourgogne", "abbreviation": "", "country": "FR" },
    { "name": "Bretagne", "abbreviation": "", "country": "FR" },
    { "name": "Centre", "abbreviation": "03", "country": "FR" },
    { "name": "Champagne-Ardenne", "abbreviation": "G", "country": "FR" },
    { "name": "Corse", "abbreviation": "", "country": "FR" },
    { "name": "Franche-Comte", "abbreviation": "", "country": "FR" },
    { "name": "Haute-Normandie", "abbreviation": "", "country": "FR" },
    { "name": "Ile-de-France", "abbreviation": "", "country": "FR" },
    { "name": "Languedoc-Roussillon", "abbreviation": "K", "country": "FR" },
    { "name": "Limousin", "abbreviation": "L", "country": "FR" },
    { "name": "Lorraine", "abbreviation": "M", "country": "FR" },
    { "name": "Midi-Pyrenees", "abbreviation": "", "country": "FR" },
    { "name": "Nord-Pas-de-Calais", "abbreviation": "O", "country": "FR" },
    { "name": "Pays de la Loire", "abbreviation": "PDL", "country": "FR" },
    { "name": "Picardie", "abbreviation": "", "country": "FR" },
    { "name": "Poitou-Charentes", "abbreviation": "T", "country": "FR" },
    {
      "name": "Provence-Alpes-Cote d'Azur",
      "abbreviation": "",
      "country": "FR"
    },
    { "name": "Rhone-Alpes", "abbreviation": "", "country": "FR" }
  ]
}
