{
  "name": "Guinea-Bissau",
  "altSpellings": [
    "GW",
    "Republic of Guinea-Bissau",
    "República da Guiné-Bissau"
  ],
  "area": 36125,
  "borders": ["GIN", "SEN"],
  "callingCodes": ["245"],
  "capital": "Bissau",
  "currencies": ["XOF"],
  "demonym": "Guinea-Bissauan",
  "flag": "",
  "geoJSON": {
    "type": "FeatureCollection",
    "features": [
      {
        "type": "Feature",
        "id": "GNB",
        "properties": { "name": "Guinea Bissau" },
        "geometry": {
          "type": "Polygon",
          "coordinates": [
            [
              [-15.130311, 11.040412],
              [-15.66418, 11.458474],
              [-16.085214, 11.524594],
              [-16.314787, 11.806515],
              [-16.308947, 11.958702],
              [-16.613838, 12.170911],
              [-16.677452, 12.384852],
              [-16.147717, 12.547762],
              [-15.816574, 12.515567],
              [-15.548477, 12.62817],
              [-13.700476, 12.586183],
              [-13.718744, 12.247186],
              [-13.828272, 12.142644],
              [-13.743161, 11.811269],
              [-13.9008, 11.678719],
              [-14.121406, 11.677117],
              [-14.382192, 11.509272],
              [-14.685687, 11.527824],
              [-15.130311, 11.040412]
            ]
          ]
        }
      }
    ]
  },
  "ISO": { "alpha2": "GW", "alpha3": "GNB" },
  "languages": ["pt"],
  "latlng": [12, -15],
  "nativeName": "Guiné-Bissau",
  "population": 1746000,
  "region": "Africa",
  "subregion": "Western Africa",
  "timezones": ["UTC"],
  "tld": [".gw"],
  "translations": {
    "de": "Guinea-Bissau",
    "es": "Guinea-Bisáu",
    "fr": "Guinée-Bissau",
    "ja": "ギニアビサウ",
    "it": "Guinea-Bissau"
  },
  "wiki": "http://en.wikipedia.org/wiki/guinea_bissau",
  "states": [
    { "name": "Bafata", "abbreviation": "", "country": "GW" },
    { "name": "Biombo", "abbreviation": "", "country": "GW" },
    { "name": "Bissau", "abbreviation": "", "country": "GW" },
    { "name": "Bolama-Bijagos", "abbreviation": "", "country": "GW" },
    { "name": "Cacheu", "abbreviation": "", "country": "GW" },
    { "name": "Gabu", "abbreviation": "", "country": "GW" },
    { "name": "Oio", "abbreviation": "", "country": "GW" },
    { "name": "Quinara", "abbreviation": "", "country": "GW" },
    { "name": "Tombali", "abbreviation": "", "country": "GW" }
  ]
}
