{
  "name": "Iran",
  "altSpellings": [
    "IR",
    "Islamic Republic of Iran",
    "Jomhuri-ye Eslāmi-ye Irān"
  ],
  "area": 1648195,
  "borders": ["AFG", "ARM", "AZE", "IRQ", "PAK", "TUR", "TKM"],
  "callingCodes": ["98"],
  "capital": "Tehran",
  "currencies": ["IRR"],
  "demonym": "Iranian",
  "flag": "",
  "geoJSON": {
    "type": "FeatureCollection",
    "features": [
      {
        "type": "Feature",
        "id": "IRN",
        "properties": { "name": "Iran" },
        "geometry": {
          "type": "Polygon",
          "coordinates": [
            [
              [53.921598, 37.198918],
              [54.800304, 37.392421],
              [55.511578, 37.964117],
              [56.180375, 37.935127],
              [56.619366, 38.121394],
              [57.330434, 38.029229],
              [58.436154, 37.522309],
              [59.234762, 37.412988],
              [60.377638, 36.527383],
              [61.123071, 36.491597],
              [61.210817, 35.650072],
              [60.803193, 34.404102],
              [60.52843, 33.676446],
              [60.9637, 33.528832],
              [60.536078, 32.981269],
              [60.863655, 32.18292],
              [60.941945, 31.548075],
              [61.699314, 31.379506],
              [61.781222, 30.73585],
              [60.874248, 29.829239],
              [61.369309, 29.303276],
              [61.771868, 28.699334],
              [62.72783, 28.259645],
              [62.755426, 27.378923],
              [63.233898, 27.217047],
              [63.316632, 26.756532],
              [61.874187, 26.239975],
              [61.497363, 25.078237],
              [59.616134, 25.380157],
              [58.525761, 25.609962],
              [57.397251, 25.739902],
              [56.970766, 26.966106],
              [56.492139, 27.143305],
              [55.72371, 26.964633],
              [54.71509, 26.480658],
              [53.493097, 26.812369],
              [52.483598, 27.580849],
              [51.520763, 27.86569],
              [50.852948, 28.814521],
              [50.115009, 30.147773],
              [49.57685, 29.985715],
              [48.941333, 30.31709],
              [48.567971, 29.926778],
              [48.014568, 30.452457],
              [48.004698, 30.985137],
              [47.685286, 30.984853],
              [47.849204, 31.709176],
              [47.334661, 32.469155],
              [46.109362, 33.017287],
              [45.416691, 33.967798],
              [45.64846, 34.748138],
              [46.151788, 35.093259],
              [46.07634, 35.677383],
              [45.420618, 35.977546],
              [44.77267, 37.17045],
              [44.225756, 37.971584],
              [44.421403, 38.281281],
              [44.109225, 39.428136],
              [44.79399, 39.713003],
              [44.952688, 39.335765],
              [45.457722, 38.874139],
              [46.143623, 38.741201],
              [46.50572, 38.770605],
              [47.685079, 39.508364],
              [48.060095, 39.582235],
              [48.355529, 39.288765],
              [48.010744, 38.794015],
              [48.634375, 38.270378],
              [48.883249, 38.320245],
              [49.199612, 37.582874],
              [50.147771, 37.374567],
              [50.842354, 36.872814],
              [52.264025, 36.700422],
              [53.82579, 36.965031],
              [53.921598, 37.198918]
            ]
          ]
        }
      }
    ]
  },
  "ISO": { "alpha2": "IR", "alpha3": "IRN" },
  "languages": ["fa"],
  "latlng": [32, 53],
  "nativeName": "Irān",
  "population": 77966400,
  "region": "Asia",
  "subregion": "Southern Asia",
  "timezones": ["UTC+03:30"],
  "tld": [".ir"],
  "translations": {
    "de": "Iran",
    "es": "Iran",
    "fr": "Iran",
    "ja": "イラン・イスラム共和国",
    "it": null
  },
  "wiki": "http://en.wikipedia.org/wiki/iran",
  "states": [
    { "name": "Ardabil", "abbreviation": "", "country": "IR" },
    { "name": "Azarbayjan-e Gharbi", "abbreviation": "", "country": "IR" },
    { "name": "Azarbayjan-e Sharqi", "abbreviation": "", "country": "IR" },
    { "name": "Bushehr", "abbreviation": "", "country": "IR" },
    {
      "name": "Chahar Mahall va Bakhtiari",
      "abbreviation": "",
      "country": "IR"
    },
    { "name": "Esfahan", "abbreviation": "", "country": "IR" },
    { "name": "Fars", "abbreviation": "", "country": "IR" },
    { "name": "Gilan", "abbreviation": "", "country": "IR" },
    { "name": "Golestan", "abbreviation": "", "country": "IR" },
    { "name": "Hamadan", "abbreviation": "", "country": "IR" },
    { "name": "Hormozgan", "abbreviation": "", "country": "IR" },
    { "name": "Ilam", "abbreviation": "", "country": "IR" },
    { "name": "Kerman", "abbreviation": "", "country": "IR" },
    { "name": "Kermanshah", "abbreviation": "", "country": "IR" },
    { "name": "Khorasan", "abbreviation": "", "country": "IR" },
    { "name": "Khuzestan", "abbreviation": "", "country": "IR" },
    {
      "name": "Kohgiluyeh va Buyer Ahmad",
      "abbreviation": "",
      "country": "IR"
    },
    { "name": "Kordestan", "abbreviation": "", "country": "IR" },
    { "name": "Lorestan", "abbreviation": "", "country": "IR" },
    { "name": "Markazi", "abbreviation": "", "country": "IR" },
    { "name": "Mazandaran", "abbreviation": "", "country": "IR" },
    { "name": "Qazvin", "abbreviation": "", "country": "IR" },
    { "name": "Qom", "abbreviation": "", "country": "IR" },
    { "name": "Semnan", "abbreviation": "", "country": "IR" },
    { "name": "Sistan va Baluchestan", "abbreviation": "", "country": "IR" },
    { "name": "Tehran", "abbreviation": "", "country": "IR" },
    { "name": "Yazd", "abbreviation": "", "country": "IR" },
    { "name": "Zanjan", "abbreviation": "", "country": "IR" }
  ]
}
