{
  "name": "Laos",
  "altSpellings": [
    "LA",
    "Lao",
    "Lao People's Democratic Republic",
    "Sathalanalat Paxathipatai Paxaxon Lao"
  ],
  "area": 236800,
  "borders": ["MMR", "KHM", "CHN", "THA", "VNM"],
  "callingCodes": ["856"],
  "capital": "Vientiane",
  "currencies": ["LAK"],
  "demonym": "Laotian",
  "flag": "",
  "geoJSON": {
    "type": "FeatureCollection",
    "features": [
      {
        "type": "Feature",
        "id": "LAO",
        "properties": { "name": "Laos" },
        "geometry": {
          "type": "Polygon",
          "coordinates": [
            [
              [105.218777, 14.273212],
              [105.544338, 14.723934],
              [105.589039, 15.570316],
              [104.779321, 16.441865],
              [104.716947, 17.428859],
              [103.956477, 18.240954],
              [103.200192, 18.309632],
              [102.998706, 17.961695],
              [102.413005, 17.932782],
              [102.113592, 18.109102],
              [101.059548, 17.512497],
              [101.035931, 18.408928],
              [101.282015, 19.462585],
              [100.606294, 19.508344],
              [100.548881, 20.109238],
              [100.115988, 20.41785],
              [100.329101, 20.786122],
              [101.180005, 21.436573],
              [101.270026, 21.201652],
              [101.80312, 21.174367],
              [101.652018, 22.318199],
              [102.170436, 22.464753],
              [102.754896, 21.675137],
              [103.203861, 20.766562],
              [104.435, 20.758733],
              [104.822574, 19.886642],
              [104.183388, 19.624668],
              [103.896532, 19.265181],
              [105.094598, 18.666975],
              [105.925762, 17.485315],
              [106.556008, 16.604284],
              [107.312706, 15.908538],
              [107.564525, 15.202173],
              [107.382727, 14.202441],
              [106.496373, 14.570584],
              [106.043946, 13.881091],
              [105.218777, 14.273212]
            ]
          ]
        }
      }
    ]
  },
  "ISO": { "alpha2": "LA", "alpha3": "LAO" },
  "languages": ["lo"],
  "latlng": [18, 105],
  "nativeName": "ສປປລາວ",
  "population": 6693300,
  "region": "Asia",
  "subregion": "South-Eastern Asia",
  "timezones": ["UTC+07:00"],
  "tld": [".la"],
  "translations": {
    "de": "Laos",
    "es": "Laos",
    "fr": "Laos",
    "ja": "ラオス人民民主共和国",
    "it": "Laos"
  },
  "wiki": "http://en.wikipedia.org/wiki/laos",
  "states": [
    { "name": "Attapu", "abbreviation": "", "country": "LA" },
    { "name": "Bokeo", "abbreviation": "", "country": "LA" },
    { "name": "Bolikhamxai", "abbreviation": "", "country": "LA" },
    { "name": "Champasak", "abbreviation": "", "country": "LA" },
    { "name": "Houaphan", "abbreviation": "", "country": "LA" },
    { "name": "Khammouan", "abbreviation": "", "country": "LA" },
    { "name": "Louangnamtha", "abbreviation": "", "country": "LA" },
    { "name": "Louangphabang", "abbreviation": "", "country": "LA" },
    { "name": "Oudomxai", "abbreviation": "", "country": "LA" },
    { "name": "Phongsali", "abbreviation": "", "country": "LA" },
    { "name": "Salavan", "abbreviation": "", "country": "LA" },
    { "name": "Savannakhet", "abbreviation": "", "country": "LA" },
    { "name": "Viangchan", "abbreviation": "", "country": "LA" },
    { "name": "Viangchan", "abbreviation": "", "country": "LA" },
    { "name": "Xaignabouli", "abbreviation": "", "country": "LA" },
    { "name": "Xaisomboun", "abbreviation": "XN", "country": "LA" },
    { "name": "Xekong", "abbreviation": "", "country": "LA" },
    { "name": "Xiangkhoang", "abbreviation": "", "country": "LA" }
  ]
}
