{
  "name": "New Zealand",
  "altSpellings": ["NZ", "Aotearoa"],
  "area": 270467,
  "borders": [],
  "callingCodes": ["64"],
  "capital": "Wellington",
  "currencies": ["NZD"],
  "demonym": "New Zealander",
  "flag": "",
  "geoJSON": {
    "type": "FeatureCollection",
    "features": [
      {
        "type": "Feature",
        "id": "NZL",
        "properties": { "name": "New Zealand" },
        "geometry": {
          "type": "MultiPolygon",
          "coordinates": [
            [
              [
                [173.020375, -40.919052],
                [173.247234, -41.331999],
                [173.958405, -40.926701],
                [174.247587, -41.349155],
                [174.248517, -41.770008],
                [173.876447, -42.233184],
                [173.22274, -42.970038],
                [172.711246, -43.372288],
                [173.080113, -43.853344],
                [172.308584, -43.865694],
                [171.452925, -44.242519],
                [171.185138, -44.897104],
                [170.616697, -45.908929],
                [169.831422, -46.355775],
                [169.332331, -46.641235],
                [168.411354, -46.619945],
                [167.763745, -46.290197],
                [166.676886, -46.219917],
                [166.509144, -45.852705],
                [167.046424, -45.110941],
                [168.303763, -44.123973],
                [168.949409, -43.935819],
                [169.667815, -43.555326],
                [170.52492, -43.031688],
                [171.12509, -42.512754],
                [171.569714, -41.767424],
                [171.948709, -41.514417],
                [172.097227, -40.956104],
                [172.79858, -40.493962],
                [173.020375, -40.919052]
              ]
            ],
            [
              [
                [174.612009, -36.156397],
                [175.336616, -37.209098],
                [175.357596, -36.526194],
                [175.808887, -36.798942],
                [175.95849, -37.555382],
                [176.763195, -37.881253],
                [177.438813, -37.961248],
                [178.010354, -37.579825],
                [178.517094, -37.695373],
                [178.274731, -38.582813],
                [177.97046, -39.166343],
                [177.206993, -39.145776],
                [176.939981, -39.449736],
                [177.032946, -39.879943],
                [176.885824, -40.065978],
                [176.508017, -40.604808],
                [176.01244, -41.289624],
                [175.239567, -41.688308],
                [175.067898, -41.425895],
                [174.650973, -41.281821],
                [175.22763, -40.459236],
                [174.900157, -39.908933],
                [173.824047, -39.508854],
                [173.852262, -39.146602],
                [174.574802, -38.797683],
                [174.743474, -38.027808],
                [174.697017, -37.381129],
                [174.292028, -36.711092],
                [174.319004, -36.534824],
                [173.840997, -36.121981],
                [173.054171, -35.237125],
                [172.636005, -34.529107],
                [173.007042, -34.450662],
                [173.551298, -35.006183],
                [174.32939, -35.265496],
                [174.612009, -36.156397]
              ]
            ]
          ]
        }
      }
    ]
  },
  "ISO": { "alpha2": "NZ", "alpha3": "NZL" },
  "languages": ["en", "mi"],
  "latlng": [-41, 174],
  "nativeName": "New Zealand",
  "population": 4547900,
  "region": "Oceania",
  "subregion": "Australia and New Zealand",
  "timezones": [
    "UTC−11:00",
    "UTC−10:00",
    "UTC+12:00",
    "UTC+12:45",
    "UTC+13:00"
  ],
  "tld": [".nz"],
  "translations": {
    "de": "Neuseeland",
    "es": "Nueva Zelanda",
    "fr": "Nouvelle-Zélande",
    "ja": "ニュージーランド",
    "it": "Nuova Zelanda"
  },
  "wiki": "http://en.wikipedia.org/wiki/new_zealand",
  "states": [
    { "name": "Akaroa", "abbreviation": "", "country": "NZ" },
    { "name": "Amuri", "abbreviation": "", "country": "NZ" },
    { "name": "Ashburton", "abbreviation": "", "country": "NZ" },
    { "name": "Bay of Islands", "abbreviation": "", "country": "NZ" },
    { "name": "Bruce", "abbreviation": "", "country": "NZ" },
    { "name": "Buller", "abbreviation": "", "country": "NZ" },
    { "name": "Chatham Islands", "abbreviation": "CIT", "country": "NZ" },
    { "name": "Cheviot", "abbreviation": "", "country": "NZ" },
    { "name": "Clifton", "abbreviation": "", "country": "NZ" },
    { "name": "Clutha", "abbreviation": "", "country": "NZ" },
    { "name": "Cook", "abbreviation": "", "country": "NZ" },
    { "name": "Dannevirke", "abbreviation": "", "country": "NZ" },
    { "name": "Egmont", "abbreviation": "", "country": "NZ" },
    { "name": "Eketahuna", "abbreviation": "", "country": "NZ" },
    { "name": "Ellesmere", "abbreviation": "", "country": "NZ" },
    { "name": "Eltham", "abbreviation": "", "country": "NZ" },
    { "name": "Eyre", "abbreviation": "", "country": "NZ" },
    { "name": "Featherston", "abbreviation": "", "country": "NZ" },
    { "name": "Franklin", "abbreviation": "", "country": "NZ" },
    { "name": "Golden Bay", "abbreviation": "", "country": "NZ" },
    { "name": "Great Barrier Island", "abbreviation": "", "country": "NZ" },
    { "name": "Grey", "abbreviation": "", "country": "NZ" },
    { "name": "Hauraki Plains", "abbreviation": "", "country": "NZ" },
    { "name": "Hawera", "abbreviation": "", "country": "NZ" },
    { "name": "Hawke's Bay", "abbreviation": "", "country": "NZ" },
    { "name": "Heathcote", "abbreviation": "", "country": "NZ" },
    { "name": "Hikurangi", "abbreviation": "", "country": "NZ" },
    { "name": "Hobson", "abbreviation": "", "country": "NZ" },
    { "name": "Hokianga", "abbreviation": "", "country": "NZ" },
    { "name": "Horowhenua", "abbreviation": "", "country": "NZ" },
    { "name": "Hurunui", "abbreviation": "", "country": "NZ" },
    { "name": "Hutt", "abbreviation": "", "country": "NZ" },
    { "name": "Inangahua", "abbreviation": "", "country": "NZ" },
    { "name": "Inglewood", "abbreviation": "", "country": "NZ" },
    { "name": "Kaikoura", "abbreviation": "", "country": "NZ" },
    { "name": "Kairanga", "abbreviation": "", "country": "NZ" },
    { "name": "Kiwitea", "abbreviation": "", "country": "NZ" },
    { "name": "Lake", "abbreviation": "", "country": "NZ" },
    { "name": "Mackenzie", "abbreviation": "", "country": "NZ" },
    { "name": "Malvern", "abbreviation": "", "country": "NZ" },
    { "name": "Manaia", "abbreviation": "", "country": "NZ" },
    { "name": "Manawatu", "abbreviation": "", "country": "NZ" },
    { "name": "Mangonui", "abbreviation": "", "country": "NZ" },
    { "name": "Maniototo", "abbreviation": "", "country": "NZ" },
    { "name": "Marlborough", "abbreviation": "", "country": "NZ" },
    { "name": "Masterton", "abbreviation": "", "country": "NZ" },
    { "name": "Matamata", "abbreviation": "", "country": "NZ" },
    { "name": "Mount Herbert", "abbreviation": "", "country": "NZ" },
    { "name": "Ohinemuri", "abbreviation": "", "country": "NZ" },
    { "name": "Opotiki", "abbreviation": "", "country": "NZ" },
    { "name": "Oroua", "abbreviation": "", "country": "NZ" },
    { "name": "Otamatea", "abbreviation": "", "country": "NZ" },
    { "name": "Otorohanga", "abbreviation": "", "country": "NZ" },
    { "name": "Oxford", "abbreviation": "", "country": "NZ" },
    { "name": "Pahiatua", "abbreviation": "", "country": "NZ" },
    { "name": "Paparua", "abbreviation": "", "country": "NZ" },
    { "name": "Patea", "abbreviation": "", "country": "NZ" },
    { "name": "Piako", "abbreviation": "", "country": "NZ" },
    { "name": "Pohangina", "abbreviation": "", "country": "NZ" },
    { "name": "Raglan", "abbreviation": "", "country": "NZ" },
    { "name": "Rangiora", "abbreviation": "", "country": "NZ" },
    { "name": "Rangitikei", "abbreviation": "", "country": "NZ" },
    { "name": "Rodney", "abbreviation": "", "country": "NZ" },
    { "name": "Rotorua", "abbreviation": "", "country": "NZ" },
    { "name": "Runanga", "abbreviation": "", "country": "NZ" },
    { "name": "Saint Kilda", "abbreviation": "", "country": "NZ" },
    { "name": "Silverpeaks", "abbreviation": "", "country": "NZ" },
    { "name": "Southland", "abbreviation": "", "country": "NZ" },
    { "name": "Stewart Island", "abbreviation": "", "country": "NZ" },
    { "name": "Stratford", "abbreviation": "", "country": "NZ" },
    { "name": "Strathallan", "abbreviation": "", "country": "NZ" },
    { "name": "Taranaki", "abbreviation": "", "country": "NZ" },
    { "name": "Taumarunui", "abbreviation": "", "country": "NZ" },
    { "name": "Taupo", "abbreviation": "", "country": "NZ" },
    { "name": "Tauranga", "abbreviation": "", "country": "NZ" },
    { "name": "Thames-Coromandel", "abbreviation": "", "country": "NZ" },
    { "name": "Tuapeka", "abbreviation": "", "country": "NZ" },
    { "name": "Vincent", "abbreviation": "", "country": "NZ" },
    { "name": "Waiapu", "abbreviation": "", "country": "NZ" },
    { "name": "Waiheke", "abbreviation": "", "country": "NZ" },
    { "name": "Waihemo", "abbreviation": "", "country": "NZ" },
    { "name": "Waikato", "abbreviation": "", "country": "NZ" },
    { "name": "Waikohu", "abbreviation": "", "country": "NZ" },
    { "name": "Waimairi", "abbreviation": "", "country": "NZ" },
    { "name": "Waimarino", "abbreviation": "", "country": "NZ" },
    { "name": "Waimate", "abbreviation": "", "country": "NZ" },
    { "name": "Waimate West", "abbreviation": "", "country": "NZ" },
    { "name": "Waimea", "abbreviation": "", "country": "NZ" },
    { "name": "Waipa", "abbreviation": "", "country": "NZ" },
    { "name": "Waipawa", "abbreviation": "", "country": "NZ" },
    { "name": "Waipukurau", "abbreviation": "", "country": "NZ" },
    { "name": "Wairarapa South", "abbreviation": "", "country": "NZ" },
    { "name": "Wairewa", "abbreviation": "", "country": "NZ" },
    { "name": "Wairoa", "abbreviation": "", "country": "NZ" },
    { "name": "Waitaki", "abbreviation": "", "country": "NZ" },
    { "name": "Waitomo", "abbreviation": "", "country": "NZ" },
    { "name": "Waitotara", "abbreviation": "", "country": "NZ" },
    { "name": "Wallace", "abbreviation": "", "country": "NZ" },
    { "name": "Wanganui", "abbreviation": "", "country": "NZ" },
    { "name": "Waverley", "abbreviation": "", "country": "NZ" },
    { "name": "Westland", "abbreviation": "", "country": "NZ" },
    { "name": "Whakatane", "abbreviation": "", "country": "NZ" },
    { "name": "Whangarei", "abbreviation": "", "country": "NZ" },
    { "name": "Whangaroa", "abbreviation": "", "country": "NZ" },
    { "name": "Woodville", "abbreviation": "", "country": "NZ" }
  ]
}
