{
  "name": "Paraguay",
  "altSpellings": [
    "PY",
    "Republic of Paraguay",
    "República del Paraguay",
    "Tetã Paraguái"
  ],
  "area": 406752,
  "borders": ["ARG", "BOL", "BRA"],
  "callingCodes": ["595"],
  "capital": "Asunción",
  "currencies": ["PYG"],
  "demonym": "Paraguayan",
  "flag": "",
  "geoJSON": {
    "type": "FeatureCollection",
    "features": [
      {
        "type": "Feature",
        "id": "PRY",
        "properties": { "name": "Paraguay" },
        "geometry": {
          "type": "Polygon",
          "coordinates": [
            [
              [-62.685057, -22.249029],
              [-62.291179, -21.051635],
              [-62.265961, -20.513735],
              [-61.786326, -19.633737],
              [-60.043565, -19.342747],
              [-59.115042, -19.356906],
              [-58.183471, -19.868399],
              [-58.166392, -20.176701],
              [-57.870674, -20.732688],
              [-57.937156, -22.090176],
              [-56.88151, -22.282154],
              [-56.473317, -22.0863],
              [-55.797958, -22.35693],
              [-55.610683, -22.655619],
              [-55.517639, -23.571998],
              [-55.400747, -23.956935],
              [-55.027902, -24.001274],
              [-54.652834, -23.839578],
              [-54.29296, -24.021014],
              [-54.293476, -24.5708],
              [-54.428946, -25.162185],
              [-54.625291, -25.739255],
              [-54.788795, -26.621786],
              [-55.695846, -27.387837],
              [-56.486702, -27.548499],
              [-57.60976, -27.395899],
              [-58.618174, -27.123719],
              [-57.63366, -25.603657],
              [-57.777217, -25.16234],
              [-58.807128, -24.771459],
              [-60.028966, -24.032796],
              [-60.846565, -23.880713],
              [-62.685057, -22.249029]
            ]
          ]
        }
      }
    ]
  },
  "ISO": { "alpha2": "PY", "alpha3": "PRY" },
  "languages": ["es", "gn"],
  "latlng": [-23, -58],
  "nativeName": "Paraguay",
  "population": 6893727,
  "region": "Americas",
  "subregion": "South America",
  "timezones": ["UTC−04:00"],
  "tld": [".py"],
  "translations": {
    "de": "Paraguay",
    "es": "Paraguay",
    "fr": "Paraguay",
    "ja": "パラグアイ",
    "it": "Paraguay"
  },
  "wiki": "http://en.wikipedia.org/wiki/paraguay",
  "states": [
    { "name": "Alto Paraguay", "abbreviation": "", "country": "PY" },
    { "name": "Alto Parana", "abbreviation": "", "country": "PY" },
    { "name": "Amambay", "abbreviation": "", "country": "PY" },
    { "name": "Asuncion (city)", "abbreviation": "", "country": "PY" },
    { "name": "Boqueron", "abbreviation": "", "country": "PY" },
    { "name": "Caaguazu", "abbreviation": "", "country": "PY" },
    { "name": "Caazapa", "abbreviation": "", "country": "PY" },
    { "name": "Canindeyu", "abbreviation": "", "country": "PY" },
    { "name": "Central", "abbreviation": "", "country": "PY" },
    { "name": "Concepcion", "abbreviation": "", "country": "PY" },
    { "name": "Cordillera", "abbreviation": "", "country": "PY" },
    { "name": "Guaira", "abbreviation": "", "country": "PY" },
    { "name": "Itapua", "abbreviation": "", "country": "PY" },
    { "name": "Misiones", "abbreviation": "", "country": "PY" },
    { "name": "Neembucu", "abbreviation": "", "country": "PY" },
    { "name": "Paraguari", "abbreviation": "", "country": "PY" },
    { "name": "Presidente Hayes", "abbreviation": "", "country": "PY" },
    { "name": "San Pedro", "abbreviation": "", "country": "PY" }
  ]
}
