{
  "name": "Saint Vincent and the Grenadines",
  "altSpellings": ["VC"],
  "area": 389,
  "borders": [],
  "callingCodes": ["1784"],
  "capital": "Kingstown",
  "currencies": ["XCD"],
  "demonym": "Saint Vincentian",
  "flag": "",
  "geoJSON": {},
  "ISO": { "alpha2": "VC", "alpha3": "VCT" },
  "languages": ["en"],
  "latlng": [13.25, -61.2],
  "nativeName": "Saint Vincent and the Grenadines",
  "population": 109000,
  "region": "Americas",
  "subregion": "Caribbean",
  "timezones": ["UTC−04:00"],
  "tld": [".vc"],
  "translations": {
    "de": "Saint Vincent und die Grenadinen",
    "es": "San Vicente y Granadinas",
    "fr": "Saint-Vincent-et-les-Grenadines",
    "ja": "セントビンセントおよびグレナディーン諸島",
    "it": "Saint Vincent e Grenadine"
  },
  "wiki": "http://en.wikipedia.org/wiki/saint_vincent_and_the_grenadines",
  "states": [
    { "name": "Charlotte", "abbreviation": "", "country": "VC" },
    { "name": "Grenadines", "abbreviation": "", "country": "VC" },
    { "name": "Saint Andrew", "abbreviation": "02", "country": "VC" },
    { "name": "Saint David", "abbreviation": "", "country": "VC" },
    { "name": "Saint George", "abbreviation": "03", "country": "VC" },
    { "name": "Saint Patrick", "abbreviation": "", "country": "VC" }
  ]
}
