{
  "name": "Slovenia",
  "altSpellings": ["SI", "Republic of Slovenia", "Republika Slovenija"],
  "area": 20273,
  "borders": ["AUT", "HRV", "ITA", "HUN"],
  "callingCodes": ["386"],
  "capital": "Ljubljana",
  "currencies": ["EUR"],
  "demonym": "Slovene",
  "flag": "",
  "geoJSON": {
    "type": "FeatureCollection",
    "features": [
      {
        "type": "Feature",
        "id": "SVN",
        "properties": { "name": "Slovenia" },
        "geometry": {
          "type": "Polygon",
          "coordinates": [
            [
              [13.806475, 46.509306],
              [14.632472, 46.431817],
              [15.137092, 46.658703],
              [16.011664, 46.683611],
              [16.202298, 46.852386],
              [16.370505, 46.841327],
              [16.564808, 46.503751],
              [15.768733, 46.238108],
              [15.67153, 45.834154],
              [15.323954, 45.731783],
              [15.327675, 45.452316],
              [14.935244, 45.471695],
              [14.595109, 45.634941],
              [14.411968, 45.466166],
              [13.71506, 45.500324],
              [13.93763, 45.591016],
              [13.69811, 46.016778],
              [13.806475, 46.509306]
            ]
          ]
        }
      }
    ]
  },
  "ISO": { "alpha2": "SI", "alpha3": "SVN" },
  "languages": ["sl"],
  "latlng": [46.11666666, 14.81666666],
  "nativeName": "Slovenija",
  "population": 2064966,
  "region": "Europe",
  "subregion": "Southern Europe",
  "timezones": ["UTC+01:00"],
  "tld": [".si"],
  "translations": {
    "de": "Slowenien",
    "es": "Eslovenia",
    "fr": "Slovénie",
    "ja": "スロベニア",
    "it": "Slovenia"
  },
  "wiki": "http://en.wikipedia.org/wiki/slovenia",
  "states": [
    { "name": "Ajdovscina", "abbreviation": "", "country": "SI" },
    { "name": "Beltinci", "abbreviation": "", "country": "SI" },
    { "name": "Bled", "abbreviation": "", "country": "SI" },
    { "name": "Bohinj", "abbreviation": "", "country": "SI" },
    { "name": "Borovnica", "abbreviation": "", "country": "SI" },
    { "name": "Bovec", "abbreviation": "", "country": "SI" },
    { "name": "Brda", "abbreviation": "", "country": "SI" },
    { "name": "Brezice", "abbreviation": "", "country": "SI" },
    { "name": "Brezovica", "abbreviation": "", "country": "SI" },
    { "name": "Cankova-Tisina", "abbreviation": "", "country": "SI" },
    { "name": "Celje", "abbreviation": "", "country": "SI" },
    { "name": "Cerklje na Gorenjskem", "abbreviation": "", "country": "SI" },
    { "name": "Cerknica", "abbreviation": "", "country": "SI" },
    { "name": "Cerkno", "abbreviation": "", "country": "SI" },
    { "name": "Crensovci", "abbreviation": "", "country": "SI" },
    { "name": "Crna na Koroskem", "abbreviation": "", "country": "SI" },
    { "name": "Crnomelj", "abbreviation": "", "country": "SI" },
    { "name": "Destrnik-Trnovska Vas", "abbreviation": "", "country": "SI" },
    { "name": "Divaca", "abbreviation": "", "country": "SI" },
    { "name": "Dobrepolje", "abbreviation": "", "country": "SI" },
    {
      "name": "Dobrova-Horjul-Polhov Gradec",
      "abbreviation": "",
      "country": "SI"
    },
    { "name": "Dol pri Ljubljani", "abbreviation": "", "country": "SI" },
    { "name": "Domzale", "abbreviation": "", "country": "SI" },
    { "name": "Dornava", "abbreviation": "", "country": "SI" },
    { "name": "Dravograd", "abbreviation": "", "country": "SI" },
    { "name": "Duplek", "abbreviation": "", "country": "SI" },
    { "name": "Gorenja Vas-Poljane", "abbreviation": "", "country": "SI" },
    { "name": "Gorisnica", "abbreviation": "", "country": "SI" },
    { "name": "Gornja Radgona", "abbreviation": "", "country": "SI" },
    { "name": "Gornji Grad", "abbreviation": "", "country": "SI" },
    { "name": "Gornji Petrovci", "abbreviation": "", "country": "SI" },
    { "name": "Grosuplje", "abbreviation": "", "country": "SI" },
    { "name": "Hodos Salovci", "abbreviation": "", "country": "SI" },
    { "name": "Hrastnik", "abbreviation": "", "country": "SI" },
    { "name": "Hrpelje-Kozina", "abbreviation": "", "country": "SI" },
    { "name": "Idrija", "abbreviation": "", "country": "SI" },
    { "name": "Ig", "abbreviation": "", "country": "SI" },
    { "name": "Ilirska Bistrica", "abbreviation": "", "country": "SI" },
    { "name": "Ivancna Gorica", "abbreviation": "", "country": "SI" },
    { "name": "Izola", "abbreviation": "", "country": "SI" },
    { "name": "Jesenice", "abbreviation": "", "country": "SI" },
    { "name": "Jursinci", "abbreviation": "", "country": "SI" },
    { "name": "Kamnik", "abbreviation": "", "country": "SI" },
    { "name": "Kanal", "abbreviation": "", "country": "SI" },
    { "name": "Kidricevo", "abbreviation": "", "country": "SI" },
    { "name": "Kobarid", "abbreviation": "", "country": "SI" },
    { "name": "Kobilje", "abbreviation": "", "country": "SI" },
    { "name": "Kocevje", "abbreviation": "", "country": "SI" },
    { "name": "Komen", "abbreviation": "", "country": "SI" },
    { "name": "Koper", "abbreviation": "", "country": "SI" },
    { "name": "Kozje", "abbreviation": "", "country": "SI" },
    { "name": "Kranj", "abbreviation": "", "country": "SI" },
    { "name": "Kranjska Gora", "abbreviation": "", "country": "SI" },
    { "name": "Krsko", "abbreviation": "", "country": "SI" },
    { "name": "Kungota", "abbreviation": "055", "country": "SI" },
    { "name": "Kuzma", "abbreviation": "", "country": "SI" },
    { "name": "Lasko", "abbreviation": "", "country": "SI" },
    { "name": "Lenart", "abbreviation": "", "country": "SI" },
    { "name": "Lendava", "abbreviation": "", "country": "SI" },
    { "name": "Litija", "abbreviation": "", "country": "SI" },
    { "name": "Ljubljana", "abbreviation": "", "country": "SI" },
    { "name": "Ljubno", "abbreviation": "", "country": "SI" },
    { "name": "Ljutomer", "abbreviation": "", "country": "SI" },
    { "name": "Logatec", "abbreviation": "", "country": "SI" },
    { "name": "Loska Dolina", "abbreviation": "", "country": "SI" },
    { "name": "Loski Potok", "abbreviation": "", "country": "SI" },
    { "name": "Luce", "abbreviation": "", "country": "SI" },
    { "name": "Lukovica", "abbreviation": "", "country": "SI" },
    { "name": "Majsperk", "abbreviation": "", "country": "SI" },
    { "name": "Maribor", "abbreviation": "", "country": "SI" },
    { "name": "Medvode", "abbreviation": "", "country": "SI" },
    { "name": "Menges", "abbreviation": "", "country": "SI" },
    { "name": "Metlika", "abbreviation": "", "country": "SI" },
    { "name": "Mezica", "abbreviation": "", "country": "SI" },
    { "name": "Miren-Kostanjevica", "abbreviation": "", "country": "SI" },
    { "name": "Mislinja", "abbreviation": "", "country": "SI" },
    { "name": "Moravce", "abbreviation": "", "country": "SI" },
    { "name": "Moravske Toplice", "abbreviation": "", "country": "SI" },
    { "name": "Mozirje", "abbreviation": "", "country": "SI" },
    { "name": "Murska Sobota", "abbreviation": "", "country": "SI" },
    { "name": "Muta", "abbreviation": "", "country": "SI" },
    { "name": "Naklo", "abbreviation": "", "country": "SI" },
    { "name": "Nazarje", "abbreviation": "", "country": "SI" },
    { "name": "Nova Gorica", "abbreviation": "", "country": "SI" },
    { "name": "Novo Mesto", "abbreviation": "", "country": "SI" },
    { "name": "Odranci", "abbreviation": "", "country": "SI" },
    { "name": "Ormoz", "abbreviation": "", "country": "SI" },
    { "name": "Osilnica", "abbreviation": "", "country": "SI" },
    { "name": "Pesnica", "abbreviation": "", "country": "SI" },
    { "name": "Piran", "abbreviation": "", "country": "SI" },
    { "name": "Pivka", "abbreviation": "", "country": "SI" },
    { "name": "Podcetrtek", "abbreviation": "", "country": "SI" },
    { "name": "Podvelka-Ribnica", "abbreviation": "", "country": "SI" },
    { "name": "Postojna", "abbreviation": "", "country": "SI" },
    { "name": "Preddvor", "abbreviation": "", "country": "SI" },
    { "name": "Ptuj", "abbreviation": "", "country": "SI" },
    { "name": "Puconci", "abbreviation": "", "country": "SI" },
    { "name": "Race-Fram", "abbreviation": "", "country": "SI" },
    { "name": "Radece", "abbreviation": "", "country": "SI" },
    { "name": "Radenci", "abbreviation": "", "country": "SI" },
    { "name": "Radlje ob Dravi", "abbreviation": "", "country": "SI" },
    { "name": "Radovljica", "abbreviation": "", "country": "SI" },
    { "name": "Ravne-Prevalje", "abbreviation": "", "country": "SI" },
    { "name": "Ribnica", "abbreviation": "", "country": "SI" },
    { "name": "Rogasevci", "abbreviation": "", "country": "SI" },
    { "name": "Rogaska Slatina", "abbreviation": "", "country": "SI" },
    { "name": "Rogatec", "abbreviation": "", "country": "SI" },
    { "name": "Ruse", "abbreviation": "", "country": "SI" },
    { "name": "Semic", "abbreviation": "", "country": "SI" },
    { "name": "Sencur", "abbreviation": "", "country": "SI" },
    { "name": "Sentilj", "abbreviation": "", "country": "SI" },
    { "name": "Sentjernej", "abbreviation": "", "country": "SI" },
    { "name": "Sentjur pri Celju", "abbreviation": "", "country": "SI" },
    { "name": "Sevnica", "abbreviation": "", "country": "SI" },
    { "name": "Sezana", "abbreviation": "", "country": "SI" },
    { "name": "Skocjan", "abbreviation": "", "country": "SI" },
    { "name": "Skofja Loka", "abbreviation": "", "country": "SI" },
    { "name": "Skofljica", "abbreviation": "", "country": "SI" },
    { "name": "Slovenj Gradec", "abbreviation": "", "country": "SI" },
    { "name": "Slovenska Bistrica", "abbreviation": "", "country": "SI" },
    { "name": "Slovenske Konjice", "abbreviation": "", "country": "SI" },
    { "name": "Smarje pri Jelsah", "abbreviation": "", "country": "SI" },
    { "name": "Smartno ob Paki", "abbreviation": "", "country": "SI" },
    { "name": "Sostanj", "abbreviation": "", "country": "SI" },
    { "name": "Starse", "abbreviation": "", "country": "SI" },
    { "name": "Store", "abbreviation": "", "country": "SI" },
    { "name": "Sveti Jurij", "abbreviation": "", "country": "SI" },
    { "name": "Tolmin", "abbreviation": "", "country": "SI" },
    { "name": "Trbovlje", "abbreviation": "", "country": "SI" },
    { "name": "Trebnje", "abbreviation": "", "country": "SI" },
    { "name": "Trzic", "abbreviation": "", "country": "SI" },
    { "name": "Turnisce", "abbreviation": "", "country": "SI" },
    { "name": "Velenje", "abbreviation": "", "country": "SI" },
    { "name": "Velike Lasce", "abbreviation": "", "country": "SI" },
    { "name": "Videm", "abbreviation": "", "country": "SI" },
    { "name": "Vipava", "abbreviation": "", "country": "SI" },
    { "name": "Vitanje", "abbreviation": "", "country": "SI" },
    { "name": "Vodice", "abbreviation": "", "country": "SI" },
    { "name": "Vojnik", "abbreviation": "", "country": "SI" },
    { "name": "Vrhnika", "abbreviation": "", "country": "SI" },
    { "name": "Vuzenica", "abbreviation": "", "country": "SI" },
    { "name": "Zagorje ob Savi", "abbreviation": "", "country": "SI" },
    { "name": "Zalec", "abbreviation": "", "country": "SI" },
    { "name": "Zavrc", "abbreviation": "", "country": "SI" },
    { "name": "Zelezniki", "abbreviation": "", "country": "SI" },
    { "name": "Ziri", "abbreviation": "", "country": "SI" },
    { "name": "Zrece", "abbreviation": "", "country": "SI" }
  ]
}
