{
  "name": "Syria",
  "altSpellings": [
    "SY",
    "Syrian Arab Republic",
    "Al-Jumhūrīyah Al-ʻArabīyah As-Sūrīyah"
  ],
  "area": 185180,
  "borders": ["IRQ", "ISR", "JOR", "LBN", "TUR"],
  "callingCodes": ["963"],
  "capital": "Damascus",
  "currencies": ["SYP"],
  "demonym": "Syrian",
  "flag": "",
  "geoJSON": {
    "type": "FeatureCollection",
    "features": [
      {
        "type": "Feature",
        "id": "SYR",
        "properties": { "name": "Syria" },
        "geometry": {
          "type": "Polygon",
          "coordinates": [
            [
              [38.792341, 33.378686],
              [36.834062, 32.312938],
              [35.719918, 32.709192],
              [35.700798, 32.716014],
              [35.836397, 32.868123],
              [35.821101, 33.277426],
              [36.06646, 33.824912],
              [36.61175, 34.201789],
              [36.448194, 34.593935],
              [35.998403, 34.644914],
              [35.905023, 35.410009],
              [36.149763, 35.821535],
              [36.41755, 36.040617],
              [36.685389, 36.259699],
              [36.739494, 36.81752],
              [37.066761, 36.623036],
              [38.167727, 36.90121],
              [38.699891, 36.712927],
              [39.52258, 36.716054],
              [40.673259, 37.091276],
              [41.212089, 37.074352],
              [42.349591, 37.229873],
              [41.837064, 36.605854],
              [41.289707, 36.358815],
              [41.383965, 35.628317],
              [41.006159, 34.419372],
              [38.792341, 33.378686]
            ]
          ]
        }
      }
    ]
  },
  "ISO": { "alpha2": "SY", "alpha3": "SYR" },
  "languages": ["ar"],
  "latlng": [35, 38],
  "nativeName": "سوريا",
  "population": 22964324,
  "region": "Asia",
  "subregion": "Western Asia",
  "timezones": ["UTC+02:00"],
  "tld": [".sy"],
  "translations": {
    "de": "Syrien",
    "es": "Siria",
    "fr": "Syrie",
    "ja": "シリア・アラブ共和国",
    "it": "Siria"
  },
  "wiki": "http://en.wikipedia.org/wiki/syria",
  "states": [
    { "name": "Al Hasakah", "abbreviation": "", "country": "SY" },
    { "name": "Al Ladhiqiyah", "abbreviation": "", "country": "SY" },
    { "name": "Al Qunaytirah", "abbreviation": "", "country": "SY" },
    { "name": "Ar Raqqah", "abbreviation": "", "country": "SY" },
    { "name": "As Suwayda'", "abbreviation": "", "country": "SY" },
    { "name": "Dar'a", "abbreviation": "", "country": "SY" },
    { "name": "Dayr az Zawr", "abbreviation": "", "country": "SY" },
    { "name": "Dimashq", "abbreviation": "", "country": "SY" },
    { "name": "Halab", "abbreviation": "", "country": "SY" },
    { "name": "Hamah", "abbreviation": "", "country": "SY" },
    { "name": "Hims", "abbreviation": "", "country": "SY" },
    { "name": "Idlib", "abbreviation": "", "country": "SY" },
    { "name": "Rif Dimashq", "abbreviation": "", "country": "SY" },
    { "name": "Tartus", "abbreviation": "", "country": "SY" }
  ]
}
