{
  "name": "Turkmenistan",
  "altSpellings": ["TM"],
  "area": 488100,
  "borders": ["AFG", "IRN", "KAZ", "UZB"],
  "callingCodes": ["993"],
  "capital": "Ashgabat",
  "currencies": ["TMT"],
  "demonym": "Turkmen",
  "flag": "",
  "geoJSON": {
    "type": "FeatureCollection",
    "features": [
      {
        "type": "Feature",
        "id": "TKM",
        "properties": { "name": "Turkmenistan" },
        "geometry": {
          "type": "Polygon",
          "coordinates": [
            [
              [61.210817, 35.650072],
              [61.123071, 36.491597],
              [60.377638, 36.527383],
              [59.234762, 37.412988],
              [58.436154, 37.522309],
              [57.330434, 38.029229],
              [56.619366, 38.121394],
              [56.180375, 37.935127],
              [55.511578, 37.964117],
              [54.800304, 37.392421],
              [53.921598, 37.198918],
              [53.735511, 37.906136],
              [53.880929, 38.952093],
              [53.101028, 39.290574],
              [53.357808, 39.975286],
              [52.693973, 40.033629],
              [52.915251, 40.876523],
              [53.858139, 40.631034],
              [54.736845, 40.951015],
              [54.008311, 41.551211],
              [53.721713, 42.123191],
              [52.91675, 41.868117],
              [52.814689, 41.135371],
              [52.50246, 41.783316],
              [52.944293, 42.116034],
              [54.079418, 42.324109],
              [54.755345, 42.043971],
              [55.455251, 41.259859],
              [55.968191, 41.308642],
              [57.096391, 41.32231],
              [56.932215, 41.826026],
              [57.78653, 42.170553],
              [58.629011, 42.751551],
              [59.976422, 42.223082],
              [60.083341, 41.425146],
              [60.465953, 41.220327],
              [61.547179, 41.26637],
              [61.882714, 41.084857],
              [62.37426, 40.053886],
              [63.518015, 39.363257],
              [64.170223, 38.892407],
              [65.215999, 38.402695],
              [66.54615, 37.974685],
              [66.518607, 37.362784],
              [66.217385, 37.39379],
              [65.745631, 37.661164],
              [65.588948, 37.305217],
              [64.746105, 37.111818],
              [64.546479, 36.312073],
              [63.982896, 36.007957],
              [63.193538, 35.857166],
              [62.984662, 35.404041],
              [62.230651, 35.270664],
              [61.210817, 35.650072]
            ]
          ]
        }
      }
    ]
  },
  "ISO": { "alpha2": "TM", "alpha3": "TKM" },
  "languages": ["tk", "ru"],
  "latlng": [40, 60],
  "nativeName": "Türkmenistan",
  "population": 5838064,
  "region": "Asia",
  "subregion": "Central Asia",
  "timezones": ["UTC+05:00"],
  "tld": [".tm"],
  "translations": {
    "de": "Turkmenistan",
    "es": "Turkmenistán",
    "fr": "Turkménistan",
    "ja": "トルクメニスタン",
    "it": "Turkmenistan"
  },
  "wiki": "http://en.wikipedia.org/wiki/turkmenistan",
  "states": [
    { "name": "Ahal Welayaty", "abbreviation": "", "country": "TM" },
    { "name": "Balkan Welayaty", "abbreviation": "", "country": "TM" },
    { "name": "Dashhowuz Welayaty", "abbreviation": "", "country": "TM" },
    { "name": "Lebap Welayaty", "abbreviation": "", "country": "TM" },
    { "name": "Mary Welayaty", "abbreviation": "", "country": "TM" }
  ]
}
