{
  "name": "Zimbabwe",
  "altSpellings": ["ZW", "Republic of Zimbabwe"],
  "area": 390757,
  "borders": ["BWA", "MOZ", "ZAF", "ZMB"],
  "callingCodes": ["263"],
  "capital": "Harare",
  "currencies": ["USD"],
  "demonym": "Zimbabwean",
  "flag": "",
  "geoJSON": {
    "type": "FeatureCollection",
    "features": [
      {
        "type": "Feature",
        "id": "ZWE",
        "properties": { "name": "Zimbabwe" },
        "geometry": {
          "type": "Polygon",
          "coordinates": [
            [
              [31.191409, -22.25151],
              [30.659865, -22.151567],
              [30.322883, -22.271612],
              [29.839037, -22.102216],
              [29.432188, -22.091313],
              [28.794656, -21.639454],
              [28.02137, -21.485975],
              [27.727228, -20.851802],
              [27.724747, -20.499059],
              [27.296505, -20.39152],
              [26.164791, -19.293086],
              [25.850391, -18.714413],
              [25.649163, -18.536026],
              [25.264226, -17.73654],
              [26.381935, -17.846042],
              [26.706773, -17.961229],
              [27.044427, -17.938026],
              [27.598243, -17.290831],
              [28.467906, -16.4684],
              [28.825869, -16.389749],
              [28.947463, -16.043051],
              [29.516834, -15.644678],
              [30.274256, -15.507787],
              [30.338955, -15.880839],
              [31.173064, -15.860944],
              [31.636498, -16.07199],
              [31.852041, -16.319417],
              [32.328239, -16.392074],
              [32.847639, -16.713398],
              [32.849861, -17.979057],
              [32.654886, -18.67209],
              [32.611994, -19.419383],
              [32.772708, -19.715592],
              [32.659743, -20.30429],
              [32.508693, -20.395292],
              [32.244988, -21.116489],
              [31.191409, -22.25151]
            ]
          ]
        }
      }
    ]
  },
  "ISO": { "alpha2": "ZW", "alpha3": "ZWE" },
  "languages": ["en", "sn", "nd"],
  "latlng": [-20, 30],
  "nativeName": "Zimbabwe",
  "population": 13061239,
  "region": "Africa",
  "subregion": "Eastern Africa",
  "timezones": ["UTC+02:00"],
  "tld": [".zw"],
  "translations": {
    "de": "Simbabwe",
    "es": "Zimbabue",
    "fr": "Zimbabwe",
    "ja": "ジンバブエ",
    "it": "Zimbabwe"
  },
  "wiki": "http://en.wikipedia.org/wiki/zimbabwe",
  "states": [
    { "name": "Bulawayo", "abbreviation": "", "country": "ZW" },
    { "name": "Harare", "abbreviation": "", "country": "ZW" },
    {
      "name": "ManicalandMashonaland Central",
      "abbreviation": "",
      "country": "ZW"
    },
    { "name": "Mashonaland East", "abbreviation": "", "country": "ZW" },
    { "name": "Mashonaland", "abbreviation": "", "country": "ZW" }
  ]
}
